step,time,face_id,centroid_x,centroid_y,centroid_z,force_x,force_y,force_z
0,0.,1,5.000000000000e-01,5.000000000000e-01,0.000000000000e+00,0.000000000000e+00,0.000000000000e+00,0.000000000000e+00
0,0.,2,5.000000000000e-01,5.000000000000e-01,1.000000000000e+00,0.000000000000e+00,0.000000000000e+00,0.000000000000e+00
1,0.333,1,5.000000000000e-01,5.000000000000e-01,0.000000000000e+00,3.973159086454e-17,5.091011156368e-17,-1.664999999240e-01
1,0.333,2,5.000000000000e-01,5.000000000000e-01,9.794750691026e-01,-2.765852213113e-17,-6.759577400162e-17,1.665000001026e-01
2,0.666,1,5.000000000000e-01,5.000000000000e-01,0.000000000000e+00,8.773431324356e-17,1.080407527453e-16,-3.329999999426e-01
2,0.666,2,5.000000000000e-01,5.000000000000e-01,9.466891095444e-01,-5.854711160693e-17,-1.635305534193e-16,3.330000001257e-01
3,1.,1,5.000000000000e-01,5.000000000000e-01,0.000000000000e+00,1.221162019528e-16,1.462870959261e-16,-4.999999999569e-01
3,1.,2,5.000000000000e-01,5.000000000000e-01,9.215591749283e-01,-9.072169852706e-17,-2.582011989253e-16,5.000000001361e-01
