step,time,face_id,centroid_x,centroid_y,centroid_z,force_x,force_y,force_z
0,0.,1,5.000000000000e-01,5.000000000000e-01,0.000000000000e+00,2.412538515563e-11,2.515729492795e-11,3.275307434562e-11
0,0.,2,5.000000000004e-01,5.000000000005e-01,1.000000000001e+00,5.411879374407e-12,-4.521167047009e-12,-9.191939942469e-12
1,0.333,1,5.000000000000e-01,5.000000000000e-01,0.000000000000e+00,5.317469554955e-15,5.909634889444e-15,-1.664999999655e-01
1,0.333,2,5.000000000000e-01,5.000000000000e-01,9.934610614171e-01,2.388546175083e-14,-4.107639764700e-14,1.664999999948e-01
2,0.666,1,5.000000000000e-01,5.000000000000e-01,0.000000000000e+00,-1.164655394695e-13,-1.992116909085e-14,-3.330000000862e-01
2,0.666,2,5.000000000000e-01,5.000000000000e-01,9.869801258151e-01,-9.568832271684e-14,1.177724842892e-13,3.330000000069e-01
3,1.,1,5.000000000000e-01,5.000000000000e-01,0.000000000000e+00,2.839005072697e-13,3.317465771850e-13,-5.000000000190e-01
3,1.,2,5.000000000000e-01,5.000000000000e-01,9.805376642754e-01,-1.539534558864e-13,-2.164714693894e-13,5.000000000044e-01
