step,time,face_id,centroid_x,centroid_y,centroid_z,force_x,force_y,force_z
0,0,1,5.000000000000e-01,5.000000000000e-01,0.000000000000e+00,-0.000000000000e+00,-0.000000000000e+00,-0.000000000000e+00
0,0,2,5.000000000000e-01,5.000000000000e-01,2.500000000000e-01,-0.000000000000e+00,-0.000000000000e+00,-0.000000000000e+00
1,0.5,1,5.000000000000e-01,5.000000000000e-01,0.000000000000e+00,-2.083596729668e-13,-1.188796394427e-12,-5.000000006046e-03
1,0.5,2,4.999999936874e-01,4.999999924258e-01,2.495424184529e-01,9.818647810743e-13,1.619048436381e-12,4.999999969830e-03
2,1,1,5.000000000000e-01,5.000000000000e-01,0.000000000000e+00,-1.944229215014e-13,-1.201069095458e-12,-1.000000000671e-02
2,1,2,4.999999872091e-01,4.999999846818e-01,2.490860530667e-01,9.849249108444e-13,1.639097947941e-12,9.999999967235e-03
